<svg width="25" height="25" viewBox="0 0 25 25" fill="none" xmlns="http://www.w3.org/2000/svg">
<path d="M22.459 18.384C22.4859 18.3525 22.5068 18.3163 22.5205 18.2772C23.537 16.5215 24.0723 14.5287 24.0723 12.5C24.0723 10.4713 23.537 8.47856 22.5205 6.72289C22.5068 6.68378 22.4859 6.64755 22.459 6.61606C20.9557 4.08089 18.5452 2.21165 15.7156 1.38676C15.6868 1.37363 15.6563 1.36463 15.625 1.36C13.5815 0.783645 11.4185 0.783645 9.37501 1.36C9.34418 1.36438 9.31409 1.37292 9.28556 1.38539C6.45524 2.21024 4.04426 4.08005 2.54103 6.61606C2.51408 6.64755 2.49322 6.68378 2.4795 6.72289C1.46301 8.47856 0.927734 10.4713 0.927734 12.5C0.927734 14.5287 1.46301 16.5215 2.4795 18.2772C2.49322 18.3163 2.51408 18.3525 2.54103 18.384C4.04312 20.9181 6.45161 22.7871 9.27931 23.6129C9.30919 23.6263 9.34083 23.6353 9.37325 23.6397C11.4173 24.2164 13.5811 24.2164 15.6252 23.6397C15.6593 23.6354 15.6926 23.626 15.7238 23.6118C18.5501 22.7854 20.9573 20.917 22.459 18.384V18.384ZM12.8418 23.3801V18.5059H17.5123C17.0045 20.3633 16.2738 21.9067 15.3852 22.9981C14.5555 23.2258 13.7017 23.3541 12.8418 23.3801V23.3801ZM9.61486 22.9977C8.72618 21.9067 7.99552 20.3635 7.48771 18.5055H12.1582V23.3797C11.2983 23.3537 10.4445 23.2254 9.61486 22.9977V22.9977ZM1.61993 12.8414H3.12501V15.5274C3.12506 15.618 3.16109 15.7049 3.22518 15.769C3.28927 15.8331 3.37617 15.8691 3.46681 15.8692H6.26271C6.35333 16.5377 6.47091 17.1914 6.61427 17.8223H3.00587C2.14799 16.2986 1.67242 14.5896 1.61993 12.8418V12.8414ZM3.00665 7.17739H6.61446C6.47091 7.80825 6.35333 8.46215 6.2629 9.13051H3.46681C3.4219 9.13054 3.37743 9.13941 3.33595 9.15662C3.29447 9.17383 3.25678 9.19904 3.22504 9.23082C3.1933 9.26259 3.16813 9.30031 3.15097 9.34181C3.13381 9.38331 3.12499 9.42779 3.12501 9.4727V12.1582H1.61993C1.67242 10.4104 2.14799 8.70145 3.00587 7.17778L3.00665 7.17739ZM12.1582 1.61996V6.49418H7.48771C7.99552 4.63676 8.72618 3.0934 9.61486 2.002C10.4445 1.77425 11.2983 1.646 12.1582 1.61996V1.61996ZM15.3852 2.00239C16.2738 3.0934 17.0045 4.63657 17.5123 6.49457H12.8418V1.61996C13.7018 1.64613 14.5555 1.77451 15.3852 2.00239V2.00239ZM23.3801 12.1586H21.875V9.4727C21.875 9.38206 21.8389 9.29516 21.7748 9.23107C21.7108 9.16698 21.6239 9.13095 21.5332 9.1309H18.7373C18.6467 8.46235 18.5291 7.80864 18.3858 7.17778H21.9942C22.852 8.70145 23.3276 10.4104 23.3801 12.1582V12.1586ZM21.9934 17.8227H18.3856C18.5291 17.1918 18.6467 16.5379 18.7371 15.8696H21.5332C21.5781 15.8695 21.6226 15.8607 21.6641 15.8435C21.7056 15.8263 21.7432 15.801 21.775 15.7693C21.8067 15.7375 21.8319 15.6998 21.8491 15.6583C21.8662 15.6168 21.875 15.5723 21.875 15.5274V12.8418H23.3801C23.3276 14.5896 22.852 16.2986 21.9942 17.8223L21.9934 17.8227ZM12.841 17.8227V15.8696H18.0469C17.9533 16.5397 17.832 17.1936 17.6832 17.8227H12.841ZM3.80861 15.1856V9.8145H21.1914V15.1856H3.80861ZM18.0469 9.1309H12.8418V7.17778H17.6838C17.832 7.80668 17.9537 8.46078 18.0469 9.1309V9.1309ZM12.1576 7.17778V9.1309H6.95314C7.04669 8.46078 7.16798 7.80688 7.31681 7.17778H12.1576ZM6.95314 15.8692H12.1582V17.8223H7.31622C7.16798 17.1932 7.0463 16.5393 6.95314 15.8692V15.8692ZM16.4953 22.627C17.28 21.3508 17.8618 19.9606 18.2199 18.5059H21.5772C20.3427 20.3653 18.5693 21.803 16.4947 22.6262L16.4953 22.627ZM21.5772 6.49418H18.2193C17.861 5.03957 17.2793 3.64934 16.4947 2.37309C18.5691 3.19671 20.3423 4.63463 21.5766 6.49418H21.5772ZM8.50587 2.37309C7.72131 3.64932 7.13952 5.03955 6.78126 6.49418H3.42345C4.65778 4.63479 6.43093 3.19706 8.50529 2.37367L8.50587 2.37309ZM3.42345 18.5059H6.78068C7.13877 19.9606 7.7205 21.3508 8.50509 22.627C6.43077 21.8033 4.65771 20.3654 3.42345 18.5059V18.5059Z" fill="white"/>
<path d="M8.94336 13.1227L8.26406 11.0596H7.69375L7.01035 13.1227L6.39395 11.0596H5.81934L6.73359 13.9404H7.25352L7.97891 11.802L8.7002 13.9404H9.22441L10.1342 11.0596H9.55977L8.94336 13.1227Z" fill="white"/>
<path d="M13.2236 13.9404H13.7477L14.6576 11.0596H14.083L13.4668 13.1227L12.7875 11.0596H12.2172L11.5336 13.1227L10.9174 11.0596H10.3428L11.2568 13.9404H11.777L12.5023 11.802L13.2236 13.9404Z" fill="white"/>
<path d="M16.3004 13.9404L17.0256 11.802L17.7469 13.9404H18.2711L19.1811 11.0596H18.6064L17.99 13.1227L17.3107 11.0596H16.7404L16.057 13.1227L15.4406 11.0596H14.8662L15.7803 13.9404H16.3004Z" fill="white"/>
</svg>
